[
  {
    "user": {
      "username": "mili",
      "password": "mili",
      "firstName": "Mili",
      "lastName": "Bovan",
      "gender": "Male",
      "birthDate": "2024-01-22T00:00:00.000Z",
      "role": "Costumer",
      "deleted": false,
      "shoppingCart": [],
      "rewardPoints": 0,
      "costumerType": null
    },
    "text": "Komentar",
    "rating": 1,
    "commentStatus": "Approved",
    "rentacarObject": [
      "RentACar2"
    ]
  },
  {
    "user": {
      "username": "mili",
      "password": "mili",
      "firstName": "Mili",
      "lastName": "Bovan",
      "gender": "Male",
      "birthDate": "2024-01-22T00:00:00.000Z",
      "role": "Costumer",
      "deleted": false,
      "shoppingCart": [],
      "rewardPoints": 0,
      "costumerType": null
    },
    "rentacarObject": [
      "RentACar1"
    ],
    "text": "Comment",
    "rating": 3,
    "commentStatus": "Rejected"
  }
]